\relax 
\@writefile{toc}{\contentsline {section}{\numberline {0.1}Introduction}{1}}
\newlabel{primal}{{3}{1}}
\newlabel{updateF}{{4}{1}}
\newlabel{updateG}{{7}{2}}
\@writefile{loa}{\contentsline {algorithm}{\numberline {1}{\ignorespaces Newtons for NMF and SVM joint Optimization\relax }}{2}}
\providecommand*\caption@xref[2]{\@setref\relax\@undefined{#1}}
\newlabel{training}{{1}{2}}
\@writefile{loa}{\contentsline {algorithm}{\numberline {2}{\ignorespaces Testing Method Description\relax }}{2}}
\newlabel{Testing}{{2}{2}}
\@writefile{toc}{\contentsline {section}{\numberline {0.2}Problems and Issues}{2}}
\@writefile{toc}{\contentsline {section}{\numberline {0.3}Evaluation}{3}}
\@writefile{toc}{\contentsline {section}{\numberline {0.4}Conclusion}{3}}
\bibstyle{plain}
\bibdata{refs}
\@writefile{lof}{\contentsline {figure}{\numberline {1}{\ignorespaces Confusion Matrix for classification\relax }}{4}}
\newlabel{fig:accu}{{1}{4}}
\newlabel{fig:conf_200_0}{{2a}{5}}
\newlabel{sub@fig:conf_200_0}{{a}{5}}
\newlabel{fig:conf_1000_0}{{2b}{5}}
\newlabel{sub@fig:conf_1000_0}{{b}{5}}
\@writefile{lof}{\contentsline {figure}{\numberline {2}{\ignorespaces Confusion Matrix for classification\relax }}{5}}
\newlabel{fig:conf}{{2}{5}}
\newlabel{fig:main_obj_100_0}{{3a}{6}}
\newlabel{sub@fig:main_obj_100_0}{{a}{6}}
\newlabel{fig:chapelle_obj_100_0}{{3b}{6}}
\newlabel{sub@fig:chapelle_obj_100_0}{{b}{6}}
\newlabel{fig:main_obj_100_1}{{3c}{6}}
\newlabel{sub@fig:main_obj_100_1}{{c}{6}}
\newlabel{fig:chapelle_obj_100_1}{{3d}{6}}
\newlabel{sub@fig:chapelle_obj_100_1}{{d}{6}}
\newlabel{fig:main_obj_100_2}{{3e}{6}}
\newlabel{sub@fig:main_obj_100_2}{{e}{6}}
\newlabel{fig:chapelle_obj_100_2}{{3f}{6}}
\newlabel{sub@fig:chapelle_obj_100_2}{{f}{6}}
\@writefile{lof}{\contentsline {figure}{\numberline {3}{\ignorespaces Objective Functions (100 training images)\relax }}{6}}
\newlabel{fig:obj}{{3}{6}}
\newlabel{fig:main_obj_100_0_3}{{4a}{7}}
\newlabel{sub@fig:main_obj_100_0_3}{{a}{7}}
\newlabel{fig:chapelle_obj_100_0_3}{{4b}{7}}
\newlabel{sub@fig:chapelle_obj_100_0_3}{{b}{7}}
\newlabel{fig:main_obj_100_4}{{4c}{7}}
\newlabel{sub@fig:main_obj_100_4}{{c}{7}}
\newlabel{fig:chapelle_obj_100_4}{{4d}{7}}
\newlabel{sub@fig:chapelle_obj_100_4}{{d}{7}}
\newlabel{fig:main_obj_100_5}{{4e}{7}}
\newlabel{sub@fig:main_obj_100_5}{{e}{7}}
\newlabel{fig:chapelle_obj_100_5}{{4f}{7}}
\newlabel{sub@fig:chapelle_obj_100_5}{{f}{7}}
\@writefile{lof}{\contentsline {figure}{\numberline {4}{\ignorespaces Objective Functions (100 training images)\relax }}{7}}
\newlabel{fig:main_obj_100_6}{{5a}{8}}
\newlabel{sub@fig:main_obj_100_6}{{a}{8}}
\newlabel{fig:chapelle_obj_100_6}{{5b}{8}}
\newlabel{sub@fig:chapelle_obj_100_6}{{b}{8}}
\newlabel{fig:main_obj_100_7}{{5c}{8}}
\newlabel{sub@fig:main_obj_100_7}{{c}{8}}
\newlabel{fig:chapelle_obj_100_7}{{5d}{8}}
\newlabel{sub@fig:chapelle_obj_100_7}{{d}{8}}
\newlabel{fig:main_obj_100_8}{{5e}{8}}
\newlabel{sub@fig:main_obj_100_8}{{e}{8}}
\newlabel{fig:chapelle_obj_100_8}{{5f}{8}}
\newlabel{sub@fig:chapelle_obj_100_8}{{f}{8}}
\@writefile{lof}{\contentsline {figure}{\numberline {5}{\ignorespaces Objective Functions (100 training images)\relax }}{8}}
\newlabel{fig:main_obj_100_9}{{6a}{9}}
\newlabel{sub@fig:main_obj_100_9}{{a}{9}}
\newlabel{fig:chapelle_obj_100_9}{{6b}{9}}
\newlabel{sub@fig:chapelle_obj_100_9}{{b}{9}}
\@writefile{lof}{\contentsline {figure}{\numberline {6}{\ignorespaces Objective Functions (100 training images)\relax }}{9}}
\newlabel{fig:recons_1}{{7a}{10}}
\newlabel{sub@fig:recons_1}{{a}{10}}
\newlabel{fig:recons_2}{{7b}{10}}
\newlabel{sub@fig:recons_2}{{b}{10}}
\@writefile{lof}{\contentsline {figure}{\numberline {7}{\ignorespaces Confusion Matrix for classification\relax }}{10}}
\newlabel{fig:orig_100_0}{{8a}{11}}
\newlabel{sub@fig:orig_100_0}{{a}{11}}
\newlabel{fig:recons_100_0}{{8b}{11}}
\newlabel{sub@fig:recons_100_0}{{b}{11}}
\newlabel{fig:orig_100_1}{{8c}{11}}
\newlabel{sub@fig:orig_100_1}{{c}{11}}
\newlabel{fig:recons_100_1}{{8d}{11}}
\newlabel{sub@fig:recons_100_1}{{d}{11}}
\newlabel{fig:orig_100_2}{{8e}{11}}
\newlabel{sub@fig:orig_100_2}{{e}{11}}
\newlabel{fig:recons_100_2}{{8f}{11}}
\newlabel{sub@fig:recons_100_2}{{f}{11}}
\@writefile{lof}{\contentsline {figure}{\numberline {8}{\ignorespaces Reconstruction of 100 training images\relax }}{11}}
\newlabel{fig:orig_100_0_3}{{9a}{12}}
\newlabel{sub@fig:orig_100_0_3}{{a}{12}}
\newlabel{fig:recons_100_0_3}{{9b}{12}}
\newlabel{sub@fig:recons_100_0_3}{{b}{12}}
\newlabel{fig:orig_100_4}{{9c}{12}}
\newlabel{sub@fig:orig_100_4}{{c}{12}}
\newlabel{fig:recons_100_4}{{9d}{12}}
\newlabel{sub@fig:recons_100_4}{{d}{12}}
\newlabel{fig:orig_100_5}{{9e}{12}}
\newlabel{sub@fig:orig_100_5}{{e}{12}}
\newlabel{fig:recons_100_5}{{9f}{12}}
\newlabel{sub@fig:recons_100_5}{{f}{12}}
\@writefile{lof}{\contentsline {figure}{\numberline {9}{\ignorespaces Reconstruction of 100 training images\relax }}{12}}
\newlabel{fig:orig_100_6}{{10a}{13}}
\newlabel{sub@fig:orig_100_6}{{a}{13}}
\newlabel{fig:recons_100_6}{{10b}{13}}
\newlabel{sub@fig:recons_100_6}{{b}{13}}
\newlabel{fig:orig_100_7}{{10c}{13}}
\newlabel{sub@fig:orig_100_7}{{c}{13}}
\newlabel{fig:recons_100_7}{{10d}{13}}
\newlabel{sub@fig:recons_100_7}{{d}{13}}
\newlabel{fig:orig_100_8}{{10e}{13}}
\newlabel{sub@fig:orig_100_8}{{e}{13}}
\newlabel{fig:recons_100_8}{{10f}{13}}
\newlabel{sub@fig:recons_100_8}{{f}{13}}
\@writefile{lof}{\contentsline {figure}{\numberline {10}{\ignorespaces Reconstruction of 100 training images\relax }}{13}}
\newlabel{fig:orig_100_9}{{11a}{14}}
\newlabel{sub@fig:orig_100_9}{{a}{14}}
\newlabel{fig:recons_100_9}{{11b}{14}}
\newlabel{sub@fig:recons_100_9}{{b}{14}}
\@writefile{lof}{\contentsline {figure}{\numberline {11}{\ignorespaces Reconstruction of 100 training images\relax }}{14}}
